ID,Species(eng),Species(nl),Species(sci),Predator,body mass male,body mass female,wing mass male,area one wing male,wing area female,wing area male,wing mass female,Wing load male,Wing load female,Wing length male,Wing length female,Wingspan male,Wingspan female,Aspect ratio male,Aspect ratio female,moment of inertia body male,moment of inertia extended wing male,J wing male,moment of inertia body female,J wing female,moment of inertia extended wing female,Span Angle Down to Upstroke female,Span Angle Down to Upstroke male,wbf passerines,wbf penny regression,wbf pennycuick,Wingbeat frequency female,Wingbeat frequency male,body_area_hedenstrom,Body area male,Body area female,Friction drag wing female,Friction drag wing male,Body drag coefficient female,Body drag coefficient male,Tail length male,Tail length female,Cruise speed male,Cruise speed female,Roll rate,Source
1,Peregrine falcon,Slechtvalk,Falco peregrinus,TRUE,528,771,0.032,,0.118368704,0.089767845,0.048453385,61.1978602,67.91353985,28.4,32.1,87.3,98.4,8.49,8.18,0.000448024,0.00029657,0.002501284,0.000839922,0.00428079,0.000573687,1.57,1.57,3.997662648,5.80617766,5.347241032,4.7,5.1,0.008715392,0.005313305,0.00683705,0.014,0.014,0.16,0.16,19,19,16.5,17,5,"Jenkins, A.R. (2014) Morphometrics and flight performance of southern African Peregrine and Lanner Falcons. J. AVIAN Biol. 26, 49?58"
2,Lanner falcon,Lannervalk,Falco biarmicus,TRUE,506,726,0.04782028,,0.144856322,0.117335354,0.065595638,46.30298354,53.60865935,31.5,35.4,96.4,106.5,7.92,7.83,0.000417463,0.000545222,0.004145887,0.000760122,0.006391061,0.000944544,1.57,1.57,3.484583168,4.753070945,4.465075565,4.4,4.4,0.008490595,0.005164815,0.006568623,0.014564826,0.014711584,0.2,0.2,18.1,20.2,14.28,12.61,,"Jenkins, A.R. (2014) Morphometrics and flight performance of southern African Peregrine and Lanner Falcons. J. AVIAN Biol. 26, 49?58"
3,Commen kestrel,Torenvalk,Falco tinnunculus,TRUE,155,184,0.019000592,,0.063416009,0.063416009,0.019000592,26.91663885,31.40273005,24.4,24.4,75,75,8.87,8.87,5.85705E-05,0.000129983,0.001276003,7.78621E-05,0.001276003,0.000129983,1.57,1.57,4.714873687,4.761205547,4.512104391,6.1,6.1,0.004106326,0.002348829,0.002633051,0.01222253,0.01297632,0.2,0.2,15.24,15.24,12.21,11.74,,"Mendelsohn, J. et al. (1988) Wing areas, wing loadings and wing spans of 66 species of african raptors. Ostrich 60, 35?42"
4,Greater kestrel,Grote torenvalk,Falco rupicoloides,TRUE,248,263,0.027433386,,0.085012048,0.081010333,0.029491,33.35378852,33.75211835,27.8,28.8,84,84,8.71,8.3,0.000127796,0.000243618,0.002099032,0.000140882,0.002337635,0.00028107,1.57,1.57,4.165833283,4.695689112,4.432163092,4.695689112,4.695689112,0.005480031,0.003212147,0.003340266,0.01293511,0.013732846,0.2,0.2,,,12.5,12.18,,"Mendelsohn, J. et al. (1988) Wing areas, wing loadings and wing spans of 66 species of african raptors. Ostrich 60, 35?42"
5,Pale chanting goshawk,Zanghavik,Melierax canorus,TRUE,647,808.7,0.073257865,,0.185015291,0.155927835,0.094684789,45.31410092,47.89985063,34.2,39.7,110,110,7.76,6.54,0.000627812,0.000984571,0.006895649,0.000909192,0.010345833,0.001714754,1.57,1.57,3.004099938,4.178061305,3.955706483,4.178061305,4.178061305,0.009873814,0.00608349,0.007057924,0.014802219,0.015715104,0.2,0.2,12.3,12.3,13.77,12.9,,"Mendelsohn, J. et al. (1988) Wing areas, wing loadings and wing spans of 66 species of african raptors. Ostrich 60, 35?42"
6,Black winged kite,Grijze wouw,Elanus caeruleus,TRUE,235,257.6,0.03106067,,0.092866324,0.088002436,0.033671012,29.65889688,30.76861992,26.5,26.6,85,85,8.21,7.78,0.000116869,0.000250636,0.002265434,0.000136113,0.002465089,0.000273754,1.57,1.57,4.009627945,4.42622875,4.213984344,4.42622875,4.42622875,0.005301825,0.003099001,0.003294432,0.013011877,0.013814348,0.2,0.2,23,23,12.1,12.02,,"Mendelsohn, J. et al. (1988) Wing areas, wing loadings and wing spans of 66 species of african raptors. Ostrich 60, 35?42"
7,Common buzzard,Buizerd,Buteo buteo,TRUE,731,731,0.096225698,,0.187017189,0.187017189,0.096225698,43.39218303,43.39218303,59,59,136,136,9.89,9.89,0.000768832,0.003848891,0.015625641,0.000768832,0.015625641,0.003848891,1.57,1.57,2.642216064,3.359585241,3.184266434,3.5,3.5,0.010642287,0.006598717,0.006598717,0.016458867,0.017473921,0.2,0.2,18,18,13.34,15.03,,"Mendelsohn, J. et al. (1988) Wing areas, wing loadings and wing spans of 66 species of african raptors. Ostrich 60, 35?42"
8,Red necked falcon,Roodkopsmelleken,Falco chicquera,TRUE,216,216,0.017035754,,0.058965102,0.058965102,0.017035754,38.77006332,38.77006332,23.4,23.4,70,70,8.31,8.31,0.000101607,0.000107185,0.001097165,0.000101607,0.001097165,0.000107185,1.57,1.57,4.971391928,5.901895983,5.499003667,5.901895983,5.901895983,0.005034361,0.002929792,0.002929792,0.011808086,0.012536316,0.2,0.2,12.2,12.2,13.09,11.6,,"Mendelsohn, J. et al. (1988) Wing areas, wing loadings and wing spans of 66 species of african raptors. Ostrich 60, 35?42"
9,Lesser kestrel,Kleine torenvalk,Falco naumanni,TRUE,121,121,0.015759767,,0.055982721,0.055982721,0.015759767,23.96477486,23.96477486,23.4,23.4,72,72,9.26,9.26,3.88286E-05,9.91567E-05,0.001014987,3.88286E-05,0.001014987,9.91567E-05,1.57,1.57,4.999205887,4.70328687,4.464731589,5.1,5.1,0.003527117,0.001991708,0.001991708,0.011975585,0.012714145,0.2,0.2,13,13,11.32,11.6,,"Mendelsohn, J. et al. (1988) Wing areas, wing loadings and wing spans of 66 species of african raptors. Ostrich 60, 35?42"
10,Red-footed falcon,Roodpootvalk,Falco vespertinus,TRUE,112.5,112.5,0.014922236,,0.053981308,0.053981308,0.014922236,23.15638817,23.15638817,23.3,23.3,76,76,10.7,10.7,3.44066E-05,9.30864E-05,0.00095694,3.44066E-05,0.00095694,9.30864E-05,1.57,1.57,4.999537225,4.398546529,4.166032239,5.2,5.2,0.003372853,0.001897397,0.001897397,0.012303744,0.013062542,0.2,0.2,24,24,11.17,11.59,,"Mendelsohn, J. et al. (1988) Wing areas, wing loadings and wing spans of 66 species of african raptors. Ostrich 60, 35?42"
11,Barn owl,Kerkuil,Tyto alba,TRUE,349,349,0.045940843,,0.114240506,0.114240506,0.045940843,33.91415003,33.91415003,28.4,28.4,95,95,7.9,7.9,0.00022533,0.000425771,0.003590972,0.00022533,0.003590972,0.000425771,1.57,1.57,3.517124817,4.230870105,4.030040434,4.230870105,4.230870105,0.006759032,0.004032852,0.004032852,0.013756004,0.014604366,0.2,0.2,12.5,12.5,12.48,12.25,,"Mendelsohn, J. et al. (1988) Wing areas, wing loadings and wing spans of 66 species of african raptors. Ostrich 60, 35?42"
12,Steppe eagle,Steppearend,Aquila nipalensis,TRUE,3025,3025,0.319742005,,0.416441441,0.416441441,0.319742005,78.7911956,78.7911956,56.1,56.1,215,215,11.1,11.1,0.008123303,0.011562878,0.049369339,0.008123303,0.049369339,0.011562878,1.57,1.57,1.720363864,2.8266236,2.647246671,2.8266236,2.8266236,0.025453945,0.016992358,0.016992358,0.020694251,0.02197051,0.2,0.2,,,15.85,14.82,,"Mendelsohn, J. et al. (1988) Wing areas, wing loadings and wing spans of 66 species of african raptors. Ostrich 60, 35?42"
13,African hawk-eagle,Afrikaanse havikarend,Aquila spilogaster,TRUE,1480,1480,0.171832104,,0.275268817,0.275268817,0.171832104,58.86781185,58.86781185,43.3,43.3,160,160,9.3,9.3,0.002479493,0.003701865,0.020477973,0.002479493,0.020477973,0.003701865,1.57,1.57,2.181148563,3.293408361,3.108667202,3.293408361,3.293408361,0.016410825,0.010555647,0.010555647,0.017852148,0.018953128,0.2,0.2,19.5,22.5,14.59,13.79,,"Mendelsohn, J. et al. (1988) Wing areas, wing loadings and wing spans of 66 species of african raptors. Ostrich 60, 35?42"
14,Black kite,Zwarte wouw,Milvus migrans,TRUE,631,631,0.118205271,,0.214508929,0.214508929,0.118205271,34.26292676,34.26292676,42.5,42.5,155,155,11.2,11.2,0.000602251,0.002453326,0.013826763,0.000602251,0.013826763,0.002453326,1.57,1.57,2.407900137,2.679695234,2.570571221,3,3,0.009723167,0.005982877,0.005982877,0.017570994,0.018654635,0.2,0.2,35,35,12.3,13.71,,"Mendelsohn, J. et al. (1988) Wing areas, wing loadings and wing spans of 66 species of african raptors. Ostrich 60, 35?42"
15,Lizzard buzzard,Hagedisbuizerd,Kaupifalco monogrammicus,TRUE,303,303,0.02443772,,0.075,0.075,0.02443772,42.82885373,42.82885373,22.6,22.6,75,75,7.5,7.5,0.000178206,0.000143423,0.001520071,0.000178206,0.001520071,0.000143423,1.57,1.57,4.442207575,5.789224149,5.410040628,,,0.0061972,0.003670552,0.003670552,0.01222253,0.01297632,0.2,0.2,14.5,14.5,13.48,11.49,,"Mendelsohn, J. et al. (1988) Wing areas, wing loadings and wing spans of 66 species of african raptors. Ostrich 60, 35?42"
16,African marsh harrier,Afrikaanse bruine kiekendief,Circus ranivorus,TRUE,470,470,0.082601174,,0.168918919,0.168918919,0.082601174,32.09242373,32.09242373,37.1,37.1,125,125,9.25,9.25,0.000369327,0.001306395,0.008434414,0.000369327,0.008434414,0.001306395,1.57,1.57,2.798244327,3.19273963,3.067250618,,,0.008114426,0.004917085,0.004917085,0.015779219,0.016752357,0.2,0.2,20,20,12.15,13.2,,"Mendelsohn, J. et al. (1988) Wing areas, wing loadings and wing spans of 66 species of african raptors. Ostrich 60, 35?42"
17,Eurasian sparrowhawk,Sperwer,Accipiter nisus,TRUE,279,279,0.02261,,0,0,0.02261,#DIV/0!,#DIV/0!,35.5,35.5,,,5.46,5.46,0.000155393,0.000327414,0.002209142,0.000155393,0.002209142,0.000327414,1.57,1.57,#DIV/0!,#DIV/0!,#DIV/0!,4.48,4.48,0.005891023,0.003474265,0.003474265,0,0,,,,,13.12,13.04,,"	Berg, C.V.A.N.D.E.N. and Rayner, J.M. V (1995) The moment of inertia of bird wings and the inertial power requirement for flapping flight. J. Exp. Biol. 198, 1655?1664"
18,Tawny owl,Bosuil,Strix aluco,TRUE,398,398,0.03141,,0,0,0.03141,#DIV/0!,#DIV/0!,42.1,42.1,,,9.03,9.03,0.000280243,0.000639695,0.003639526,0.000280243,0.003639526,0.000639695,1.57,1.57,#DIV/0!,#DIV/0!,#DIV/0!,,,0.00732686,0.004401621,0.004401621,0,0,,,21,21,12.97,13.68,,"	Berg, C.V.A.N.D.E.N. and Rayner, J.M. V (1995) The moment of inertia of bird wings and the inertial power requirement for flapping flight. J. Exp. Biol. 198, 1655?16"
19,Woodcock,Houtsnip,Scolopax rusticola,FALSE,163,163,0.01245,,0.041195266,0.041195266,0.01245,41.78063782,41.78063782,27.9,27.9,59,59,8.45,8.45,6.36737E-05,0.000111357,0.000956023,6.36737E-05,0.000956023,0.000111357,1.57,1.57,6.003918645,7.049096229,6.496980913,,,0.00423519,0.002428888,0.002428888,0.010840679,0.011509247,,,7.6,7.6,12.61,12.19,,"	Berg, C.V.A.N.D.E.N. and Rayner, J.M. V (1995) The moment of inertia of bird wings and the inertial power requirement for flapping flight. J. Exp. Biol. 198, 1655?16"
20,Black headed gull,Kokmeeuw,Chroicocephalus ridibundus,FALSE,256,256,0.01898,,0.09,0.09,0.01898,29.97282,29.97282,46.1,46.1,93,93,9.61,9.61,0.000134712,0.000463488,0.002408196,0.000134712,0.002408196,0.000463488,1.57,1.57,3.88631319,4.162018795,3.940784099,3.5,3.5,0.005587905,0.003280789,0.003280789,0.013610434,0.014449818,0.35,0.35,,,12.26,14.03,,"	Berg, C.V.A.N.D.E.N. and Rayner, J.M. V (1995) The moment of inertia of bird wings and the inertial power requirement for flapping flight. J. Exp. Biol. 198, 1655?"
21,Rock dove,Rotsduif,Columba livia,FALSE,293,293,0.02247,,0.077575758,0.077575758,0.02247,39.89339965,39.89339965,32.2,32.2,80,80,8.25,8.25,0.00016855,0.000267704,0.001991378,0.00016855,0.001991378,0.000267704,1.57,1.57,4.305890053,5.313979248,4.973329989,6.71,6.71,0.006070807,0.003589421,0.003589421,0.012623375,0.013401886,0.35,0.35,11.6,11.6,14,12.7,,"	Berg, C.V.A.N.D.E.N. and Rayner, J.M. V (1995) The moment of inertia of bird wings and the inertial power requirement for flapping flight. J. Exp. Biol. 198, 1655?"
22,Common kingfisher,Ijsvogel,Alcedo atthis,FALSE,34.3,34,0.00155,,0.014937833,0.014937833,0.00155,23.54347509,23.34645856,13,13,29,29,5.63,5.63,4.78979E-06,3.00995E-06,5.54587E-05,4.72045E-06,5.54587E-05,3.00995E-06,1.57,1.57,10.73234965,10.87686435,10.13151453,,,0.001626523,0.000860194,0.000855176,0.007600278,0.008069004,0.43,0.43,5,5,12.07,9.84,,"	Berg, C.V.A.N.D.E.N. and Rayner, J.M. V (1995) The moment of inertia of bird wings and the inertial power requirement for flapping flight. J. Exp. Biol. 198, 1655?"
23,European green woodpecker,Groene specht,Picus viridus,FALSE,179,179,0.01175,,0.046035398,0.046035398,0.01175,40.64823097,40.64823097,23.5,23.5,51,51,5.65,5.65,7.43814E-05,7.45614E-05,0.000759977,7.43814E-05,0.000759977,7.45614E-05,1.57,1.57,5.961423688,8.089869654,7.542015508,,,0.004485816,0.002585179,0.002585179,0.010078957,0.010700548,0.43,0.43,,,13.29,11.62,,"	Berg, C.V.A.N.D.E.N. and Rayner, J.M. V (1995) The moment of inertia of bird wings and the inertial power requirement for flapping flight. J. Exp. Biol. 198, 1655?"
24,Great spotted woodpecker,Grote bonte specht,Dendrocopos major,FALSE,62.9,62,0.00417,,0.020830235,0.020830235,0.00417,31.58661849,31.16276347,19,19,41,41,8.07,8.07,1.31066E-05,1.72975E-05,0.000218064,1.27967E-05,0.000218064,1.72975E-05,1.57,1.57,8.628133967,8.772136202,8.071836877,,,0.002360267,0.001288225,0.00127592,0.009036961,0.00959429,0.43,0.43,7.5,7.5,11.82,10.95,,"	Berg, C.V.A.N.D.E.N. and Rayner, J.M. V (1995) The moment of inertia of bird wings and the inertial power requirement for flapping flight. J. Exp. Biol. 198, 1655?"
25,Common house martin,Huiszwaluw,Delichon urbica,FALSE,15.2,15,0.00085,,0.01,0.01,0.00085,15.74505,15.54885,14,14,29,29,8.41,8.41,1.24048E-06,1.91432E-06,3.27523E-05,1.2135E-06,3.27523E-05,1.91432E-06,1.57,1.57,12.52340454,9.162152875,8.539440713,9.35,9.35,0.000986828,0.000500263,0.000495869,0.007600278,0.008069004,0.43,0.43,4.5,4.5,10.09,10.05,,"	Berg, C.V.A.N.D.E.N. and Rayner, J.M. V (1995) The moment of inertia of bird wings and the inertial power requirement for flapping flight. J. Exp. Biol. 198, 1655?"
26,European robin,Roodborst,Erithacus rubecula,FALSE,15,15,0.00069,,0.008996283,0.008996283,0.00069,17.10916698,17.10916698,10.8,10.8,22,22,5.38,5.38,1.2135E-06,9.24777E-07,2.05101E-05,1.2135E-06,2.05101E-05,9.24777E-07,1.57,1.57,14.04926408,12.30477726,11.50724952,16.1,16.1,0.000978836,0.000495869,0.000495869,0.006619754,0.014,0.35,0.35,6.7,6.4,10.38,9.35,,"	Berg, C.V.A.N.D.E.N. and Rayner, J.M. V (1995) The moment of inertia of bird wings and the inertial power requirement for flapping flight. J. Exp. Biol. 198, 1655?"
27,Common blackbird,Merel,Turdus merula,FALSE,98.7,98,0.00314,,0.03043,0.03234,0.00314,30.89209647,32.60543543,13.45,13.05,38.95,38.95,4.69110235,4.985548801,2.76882E-05,6.52702E-06,0.000116238,2.7363E-05,0.000112781,6.14457E-06,1.57,1.57,7.333565324,9.423295907,8.84523715,8.55,8.55,0.003112436,0.001739025,0.001730801,0.00880814,0.01862818,0.43,0.43,,,11.33,10.85,,"	Berg, C.V.A.N.D.E.N. and Rayner, J.M. V (1995) The moment of inertia of bird wings and the inertial power requirement for flapping flight. J. Exp. Biol. 198, 1655?"
28,Song thrush,Zanglijster,Turdus philomelos,FALSE,67.6,68,0.00339,,0.022188006,0.022188006,0.00339,31.38686211,31.56371441,17.1,17.1,37,37,6.17,6.17,1.4772E-05,1.13902E-05,0.000159548,1.49174E-05,0.000159548,1.13902E-05,1.57,1.57,8.639875949,9.736858106,9.018420887,10,10,0.002467044,0.001351559,0.00135688,0.008584823,0.009114268,0.43,0.43,,,12.7,10.63,,"	Berg, C.V.A.N.D.E.N. and Rayner, J.M. V (1995) The moment of inertia of bird wings and the inertial power requirement for flapping flight. J. Exp. Biol. 198, 1655?"
29,Coal tit,Zwarte mees,Periparus ater,FALSE,14.6,15,0.00084,,0.011995465,0.011995465,0.00084,12.6269721,12.95409573,11.2,11.2,23,23,4.41,4.41,1.16026E-06,1.21075E-06,2.58936E-05,1.2135E-06,2.58936E-05,1.21075E-06,1.57,1.57,12.32085541,10.60639595,10.15114602,13,13,0.000962725,0.000487023,0.000495869,0.006768531,0.007185961,0.43,0.43,,,7.53,7.53,,"	Berg, C.V.A.N.D.E.N. and Rayner, J.M. V (1995) The moment of inertia of bird wings and the inertial power requirement for flapping flight. J. Exp. Biol. 198, 1655?"
30,Eurasian blue tit,Pimpelmees,Cyanistes caeruleus,FALSE,9.5,10,0.00048,0.00424,0.008926316,0.008926316,0.00048,10.96799646,11.51749528,9.5,9.5,20,20,4.481132075,4.481132075,5.68525E-07,4.9777E-07,1.25505E-05,6.19054E-07,1.25505E-05,4.9777E-07,1.57,1.57,14.34711475,11.38857086,10.89154209,14,14,0.000739455,0.000365809,0.000378521,0.006311687,0.006700943,0.43,0.43,,,7.53,7.53,,"	Berg, C.V.A.N.D.E.N. and Rayner, J.M. V (1995) The moment of inertia of bird wings and the inertial power requirement for flapping flight. J. Exp. Biol. 198, 1655?"
31,Common chaffinch,Vink,Fringilla coelebs,FALSE,19.9,20,0.0011,,0.008765778,0.008765778,0.0011,23.5016208,23.61353328,11.6,11.6,25,25,7.13,7.13,1.9401E-06,1.70078E-06,3.51193E-05,1.95631E-06,3.51193E-05,1.70078E-06,1.57,1.57,13.79906501,12.20893027,11.19935362,15.5,15.5,0.001164355,0.000598586,0.000600588,0.007056681,0.007491882,0.43,0.43,,,9.5,9.53,,"	Berg, C.V.A.N.D.E.N. and Rayner, J.M. V (1995) The moment of inertia of bird wings and the inertial power requirement for flapping flight. J. Exp. Biol. 198, 1655?"
32,Zebra finch,Zebravink,Taeniopygia guttata,FALSE,13.2,13.2,0.00063,0.0028,0.006326203,0.006326203,0.00063,21.44608631,21.44608631,7.48,7.48,16.9,16.9,4.514714286,4.514714286,9.81479E-07,4.05027E-07,1.29699E-05,9.81479E-07,1.29699E-05,4.05027E-07,1.256,1.256,17.37132222,16.97862697,15.67587232,26,26,0.000904945,0.0004554,0.0004554,0.005801948,0.006159767,0.43,0.43,,,11.45,8.88,,"	Berg, C.V.A.N.D.E.N. and Rayner, J.M. V (1995) The moment of inertia of bird wings and the inertial power requirement for flapping flight. J. Exp. Biol. 198, 1655?"
33,Red-billed quelea,Roodbekwever,Quelea quelea,FALSE,15.1,15,0.00064,,0,0,0.00064,#DIV/0!,#DIV/0!,10,10,,,2.17,2.17,1.22696E-06,7.35395E-07,1.76147E-05,1.2135E-06,1.76147E-05,7.35395E-07,1.57,1.57,#DIV/0!,#DIV/0!,#DIV/0!,,,0.000982837,0.000498069,0.000495869,0,0,0.43,0.43,,,10.38,9.15,,"	Berg, C.V.A.N.D.E.N. and Rayner, J.M. V (1995) The moment of inertia of bird wings and the inertial power requirement for flapping flight. J. Exp. Biol. 198, 1655?"
34,Common starling,Spreeuw,Sturnus vulgaris,FALSE,70,70,0.0037,,0.024142857,0.024142857,0.0037,29.9466213,29.9466213,15,15,39,39,6.3,6.3,1.56528E-05,9.56588E-06,0.000152752,1.56528E-05,0.000152752,9.56588E-06,1.57,1.57,8.234134286,9.119829449,8.475210034,10.5,10.5,0.002520461,0.00138333,0.00138333,0.008813792,0.009357357,0.41,0.41,6.2,6.2,11.62,10.87,40,"	Berg, C.V.A.N.D.E.N. and Rayner, J.M. V (1995) The moment of inertia of bird wings and the inertial power requirement for flapping flight. J. Exp. Biol. 198, 1655?"
35,Rook,Roek,Corvus frugilegus,FALSE,328,328,0.02878,,0.066390041,0.066390041,0.02878,52.71892774,38.3,38.9,38.9,80,80,9.64,9.64,0.000203273,0.000500415,0.003081308,0.000203273,0.003081308,0.000500415,1.57,1.57,4.601099341,5.838693467,5.368938825,3.97,3.97,0.006506332,0.003869568,0.003869568,0.012623375,0.013401886,0.43,0.43,,,13.32,13.38,,"	Berg, C.V.A.N.D.E.N. and Rayner, J.M. V (1995) The moment of inertia of bird wings and the inertial power requirement for flapping flight. J. Exp. Biol. 198, 1655?"
36,Mallard,Wilde eend,Anas platyrhynchos,FALSE,995,995,0.07,,0.092764544,0.0927,0.07,112.7038835,112.6254657,39.7,39.7,86.2,86.2,8.01,8.01,0.00128267,0.001267709,0.007648624,0.00128267,0.007648624,0.0018,1.256,1.256,3.995414314,7.37417795,6.635546911,6.2,6.2,0.012860359,0.008102904,0.008102904,0.013103404,0.013911519,0.35,0.35,,,20,20,,"Williamson, M. R., Dial, K. P., & Biewener, A. a. (2001). Pectoralis muscle performance during ascending and slow level flight in mallards (Anas platyrhynchos). The Journal of Experimental Biology, 204(Pt 3), 495–507."
37,Common swift,gierzwaluw,Apus apus,FALSE,42,42,0.0021,,0.015664016,0.0157,0.0021,27.55547771,27.6187787,18,18,39.2,39.2,9.81,9.81,6.70382E-06,7.81817E-06,0.000104037,6.70382E-06,0.000104037,0.0018,1.9154,1.9154,9.756094931,8.647674172,7.919571419,8.3,8.3,0.001841895,0.000984407,0.000984407,0.008836362,0.00938132,0.35,0.35,,,11,11,,"Henningsson, P., & Hedenström, a. (2011). Aerodynamics of gliding flight in common swifts. The Journal of Experimental Biology, 214(Pt 3), 382–393. http://doi.org/10.1242/jeb.050609"
38,fieldfare,kramsvogel,Turdus pilaris,FALSE,113.7,112.6,0.010570902,,0.03679,0.03405,0.011872196,35.8031586,33.19033008,14.84,14.37,44.74,43.27,5.878612628,5.089135363,3.5018E-05,2.67498E-05,0.000431758,3.44574E-05,0.000469551,0.0018,1.57,1.57,6.940994178,8.553264383,7.969072765,8,8,0.003394897,0.001910852,0.00189852,0.009283761,0.010022335,0.35,0.35,10.84,10.44,,,,Article (Hedenstrom1992)
39,snow bunting,sneeuwgors,Plectrophenax nivalis,FALSE,36.4,36.3,0.004483625,,0.01612,0.01484,0.005070754,27.02616995,25.17661912,11.14,10.61,32.08,30.19,6.934814016,5.654070099,5.28636E-06,6.39352E-06,0.00013747,5.26227E-06,0.000148075,0.0018,1.57,1.57,10.49437131,10.11897409,9.357371157,10.49437131,10.49437131,0.001686965,0.00089492,0.000893282,0.007754647,0.008486685,0.35,0.35,8.32,8.01,,,,Article (Hedenstrom1992)
40,yellowhammer,geelgors,Emberiza citrinella,FALSE,27.9,26.8,0.001582285,,0.01368,0.013,0.001713933,22.2477862,20.44749117,8.72,8.42,27.23,26.97,5.703637692,5.317111842,3.39963E-06,1.38248E-06,3.79749E-05,3.18004E-06,3.97192E-05,0.0018,1.57,1.57,11.51990028,11.19866543,10.42831524,11.51990028,11.51990028,0.001432817,0.000749658,0.000729841,0.007329443,0.007818883,0.35,0.35,7.1,7.3,,,,Article (Hedenstrom1992)
41,European greenfinch,groenling,Carduelis chloris,FALSE,27.4,30.4,0.002439271,,0.01383,0.01281,0.002736337,22.85115142,23.504517,8.96,8.9,27.39,25.98,5.856456674,4.880407809,3.29909E-06,2.25018E-06,6.01538E-05,3.92011E-06,6.70277E-05,0.0018,1.57,1.57,11.56985895,11.11508797,10.34309315,15.2,15.2,0.001416996,0.000740683,0.000793751,0.007193663,0.007841821,0.35,0.35,5.35,5.53,,,,Article (Hedenstrom1992)
42,Sedge warbler,rietzanger,Acrocephalus schoenobaenus,FALSE,11.4,11.1,0.00152787,,0.00768,0.00724,0.001667504,17.51690618,16.30849125,6.7,6.57,19.72,19.19,5.371248619,4.795001302,7.69468E-07,7.88091E-07,2.81745E-05,7.36147E-07,3.01528E-05,0.0018,1.57,1.57,15.74959985,13.2528422,12.3691435,15.74959985,15.74959985,0.000827045,0.000413037,0.000405766,0.006182555,0.006653871,0.35,0.35,4.87,4.75,,,,Article (Hedenstrom1992)
43,Eurasian reed warbler,kleine karakiet,Acrocephalus scirpaceus,FALSE,12.2,12.2,0.00068368,,0.00802,0.00743,0.000769354,17.01061955,15.86401019,6.93,6.78,19.56,19.36,5.14930821,4.673436409,8.61164E-07,3.77277E-07,1.30401E-05,8.61164E-07,1.43566E-05,0.0018,1.57,1.57,15.62986819,13.58306482,12.67311724,16.6,16.6,0.000862213,0.000432122,0.000432122,0.006209879,0.006626823,0.35,0.35,5.13,5,,,,Article (Hedenstrom1992)
44,Common whitethroat,grasmus,Sylvia communis,FALSE,14.9,14.8,0.00146049,,0.01007,0.0091,0.001700124,17.63696736,16.07410287,7.45,7.3,22.68,21.1,5.652553846,4.421151936,1.2001E-06,9.31433E-07,2.99467E-05,1.18676E-06,3.41585E-05,0.0018,1.57,1.57,13.87181054,11.87576227,11.10550352,16,16,0.000974824,0.000493665,0.000491456,0.006482936,0.007135796,0.35,0.35,5.83,5.5,,,,Article (Hedenstrom1992)
45,Lesser whitethroat,braamsluiper,Sylvia curruca,FALSE,11.8,11,0.001418428,,0.00724,0.00689,0.001526275,18.82043221,16.97275695,6.56,6.42,20.36,20.01,6.016394775,5.530388122,8.14803E-07,7.01383E-07,2.56098E-05,7.25171E-07,2.69689E-05,0.0018,1.57,1.57,15.9531345,13.23741289,12.26989895,22,22,0.000844744,0.000422634,0.000403328,0.006313265,0.006760982,0.35,0.35,5.7,5.4,,,,Article (Hedenstrom1992)
46,Meadow pipit,graspieper,Anthus pratensis,FALSE,20.1,18.9,0.001117526,,0.01167,0.01031,0.001350426,20.18854845,17.02285193,8.2,7.83,26.99,24.82,7.06556838,5.278769494,1.97258E-06,8.63428E-07,2.52212E-05,1.78096E-06,2.91023E-05,0.0018,1.57,1.57,12.64994653,10.78883355,9.994491383,16,16,0.001171526,0.000602586,0.000578381,0.007031231,0.00778435,0.35,0.35,6.05,5.57,,,,Article (Hedenstrom1992)
47,white wagtail,Witte kwikstaart,Motacilla alba,FALSE,25.1,22.8,0.002371042,,0.01297,0.01257,0.002485114,21.43921437,19.12467,9.12,8.75,27.5,27.49,6.016308671,5.826523516,2.85225E-06,2.26605E-06,5.95153E-05,2.43165E-06,5.98479E-05,0.0018,1.57,1.57,11.63366543,10.78206009,10.05242767,16.1,16.1,0.001342732,0.000698672,0.000655353,0.007399764,0.007857552,0.35,0.35,8.74,8.39,,,,Article (Hedenstrom1992)
48,skylark,Veld leeuwerik,Alauda arvensis,FALSE,34.9,33.1,0.005989453,,0.0198,0.018,0.00690276,22.28475215,19.8195495,11.41,10.33,35.39,32.4,6.958067222,5.301818182,4.92968E-06,8.95981E-06,0.000188091,4.51485E-06,0.000196254,0.0018,1.57,1.57,9.43814284,8.501776472,7.969957699,9.8,9.8,0.001643935,0.000870186,0.000840032,0.008033467,0.008913765,0.35,0.35,6.94,6.31,,,,Article (Hedenstrom1992)
49,house sparrow,huismus,Passer domesticus,FALSE,27.8,27.8,0.001088389,,0.01062,0.01013,0.001172334,27.97582351,26.76257976,7.53,7.38,23.5,23.22,5.451628825,5.076915254,3.37943E-06,7.09111E-07,2.25566E-05,3.37943E-06,2.38124E-05,0.0018,1.57,1.57,13.27060379,13.9942398,12.84569495,22,22,0.001429661,0.000747867,0.000747867,0.006800825,0.007263649,0.35,0.35,6.15,6.01,10,10,,Article (Hedenstrom1992)
50,bluethroat,blauwborst,Luscinia svecica,FALSE,16.3,16.1,0.001669825,,0.01094,0.00995,0.00192514,17.7169834,16.16331127,7.68,6.95,22.66,21.24,5.160558794,4.123744059,1.39303E-06,1.13171E-06,3.52961E-05,1.36477E-06,3.68249E-05,0.0018,1.57,1.57,13.38821318,11.93272815,11.20021661,13.38821318,13.38821318,0.001030085,0.000524092,0.0005198,0.006504408,0.007132649,0.35,0.35,5.28,5.17,,,,Article (Hedenstrom1992)
51,whooper swan,,,,13500,,,,0.755893887,0.755893887,,,,,,256,256,8.67,8.67,,,,,,,,,1.31329197,3.435874477,3.153568814,,,0.06376974,0.046014302,,,,,,,,,,,
52,,,,,,,,,#DIV/0!,,,,,,,,,,,,,,,,,,,#DIV/0!,#DIV/0!,#DIV/0!,,,0,0,,,,,,,,,,,
51,,,,,,,,,#DIV/0!,,,,,,,,,,,,,,,,,,,#DIV/0!,#DIV/0!,#DIV/0!,,,0,0,,,,,,,,,,,
52,,,,,,,,,#DIV/0!,,,,,,,,,,,,,,,,,,,#DIV/0!,#DIV/0!,#DIV/0!,,,0,0,,,,,,,,,,,
